Proyecto 3/proyecto_division/tb_divider_top.vcd
$date
	Sat May 30 19:42:36 2026
$end
$version
	Icarus Verilog
$end
$timescale
	1ps
$end
$scope module tb_divider_top $end
$var wire 5 ! remainder_o [4:0] $end
$var wire 7 " quotient_o [6:0] $end
$var wire 1 # done_o $end
$var parameter 32 $ CLK_PERIOD $end
$var parameter 32 % DIVIDEND_WIDTH $end
$var parameter 32 & DIVISOR_WIDTH $end
$var parameter 32 ' TIMEOUT $end
$var reg 1 ( clk $end
$var reg 7 ) dividend_i [6:0] $end
$var reg 5 * divisor_i [4:0] $end
$var reg 1 + rst_n $end
$var reg 1 , valid_i $end
$scope module dut $end
$var wire 1 ( clk $end
$var wire 7 - dividend_i [6:0] $end
$var wire 5 . divisor_i [4:0] $end
$var wire 1 + rst_n $end
$var wire 1 , valid_i $end
$var wire 1 / shift $end
$var wire 5 0 remainder_o [4:0] $end
$var wire 7 1 quotient_o [6:0] $end
$var wire 1 2 load $end
$var wire 1 3 iter_done $end
$var wire 1 # done_o $end
$var parameter 32 4 DIVIDEND_WIDTH $end
$var parameter 32 5 DIVISOR_WIDTH $end
$scope module u_datapath $end
$var wire 1 ( clk $end
$var wire 7 6 dividend_i [6:0] $end
$var wire 5 7 divisor_i [4:0] $end
$var wire 7 8 quotient [6:0] $end
$var wire 1 + rst_n $end
$var wire 1 / shift $end
$var wire 5 9 remainder [4:0] $end
$var wire 1 2 load $end
$var wire 1 3 iter_done $end
$var parameter 32 : DIVIDEND_WIDTH $end
$var parameter 32 ; DIVISOR_WIDTH $end
$var reg 7 < A_reg [6:0] $end
$var reg 5 = B_reg [4:0] $end
$var reg 6 > D_sub [5:0] $end
$var reg 7 ? Q_reg [6:0] $end
$var reg 6 @ R_reg [5:0] $end
$var reg 6 A R_shift [5:0] $end
$var reg 1 B a_bit_sel $end
$var reg 4 C iter_cnt [3:0] $end
$var reg 1 D q_bit $end
$scope begin $ivl_for_loop0 $end
$var integer 32 E k [31:0] $end
$upscope $end
$scope begin $ivl_for_loop1 $end
$var integer 32 F k [31:0] $end
$upscope $end
$scope begin sel_a_bit $end
$var integer 32 G k [31:0] $end
$upscope $end
$upscope $end
$scope module u_fsm $end
$var wire 1 ( clk $end
$var wire 1 3 iter_done $end
$var wire 1 + rst_n $end
$var wire 1 , valid_i $end
$var reg 1 # done_o $end
$var reg 1 2 load $end
$var reg 2 H next_state [1:0] $end
$var reg 1 / shift $end
$var reg 2 I state [1:0] $end
$upscope $end
$upscope $end
$scope task test_division $end
$upscope $end
$upscope $end
$enddefinitions $end
$comment Show the parameter values. $end
$dumpall
b101 ;
b111 :
b101 5
b111 4
b1111101000 '
b101 &
b111 %
b100101 $
$end
#0
$dumpvars
b0 I
b0 H
b111 G
b0 F
b0 E
1D
b0 C
0B
b0 A
b0 @
b0 ?
b0 >
b0 =
b0 <
b0 9
b0 8
b0 7
b0 6
13
02
b0 1
b0 0
0/
b0 .
b0 -
0,
0+
b0 *
b0 )
0(
0#
b0 "
b0 !
$end
#18000
1(
#36000
0(
#54000
1(
#72000
0(
#90000
1(
#108000
0(
#126000
1+
1(
#144000
0(
#162000
b1 H
1,
b1111 *
b1111 .
b1111 7
b111111 )
b111111 -
b111111 6
1(
#180000
0(
#198000
12
b10 H
b1 I
1(
#216000
0(
#234000
1/
02
0D
b110001 >
b111 G
b10 I
03
b110 C
b1111 =
b111111 <
1(
#252000
0(
#270000
b110010 >
b1 A
1B
b111 G
b101 C
b111 F
1(
#288000
0(
#306000
b111 G
1B
b110100 >
b11 A
b1 !
b1 0
b1 9
b100 C
b1 @
b111 F
1(
#324000
0(
#342000
b111 G
1B
b111000 >
b111 A
b11 !
b11 0
b11 9
b11 C
b11 @
b111 F
1(
#360000
0(
#378000
b111 G
1B
1D
b0 >
b1111 A
b111 !
b111 0
b111 9
b10 C
b111 @
b111 F
1(
#396000
0(
#414000
b111 G
1B
0D
b110010 >
b1 A
b0 !
b0 0
b0 9
b1 C
b100 "
b100 1
b100 8
b100 ?
b0 @
b111 E
1(
#432000
0(
#450000
b111 G
1B
b11 H
b110100 >
b11 A
b1 !
b1 0
b1 9
13
b0 C
b1 @
b111 F
1(
#468000
0(
#486000
1#
0/
b111000 >
b111 A
b11 !
b11 0
b11 9
b11 I
b11 @
b111 F
1(
#487000
b0 H
0,
#504000
0(
#522000
0#
b0 I
1(
#540000
0(
#558000
1(
#576000
0(
#594000
b1 H
1,
b111 *
b111 .
b111 7
b101101 )
b101101 -
b101101 6
1(
#612000
0(
#630000
12
b10 H
b1 I
1(
#648000
0(
#666000
1/
02
b0 !
b0 0
b0 9
b111001 >
b0 A
b111 G
0B
b10 I
03
b110 C
b0 @
b0 "
b0 1
b0 8
b0 ?
b111 =
b101101 <
1(
#684000
0(
#702000
b111010 >
b1 A
1B
b111 G
b101 C
b111 F
1(
#720000
0(
#738000
b111 G
0B
b111011 >
b10 A
b1 !
b1 0
b1 9
b100 C
b1 @
b111 F
1(
#756000
0(
#774000
1B
b111 G
b111110 >
b101 A
b10 !
b10 0
b10 9
b11 C
b10 @
b111 F
1(
#792000
0(
#810000
b111 G
1B
1D
b100 >
b1011 A
b101 !
b101 0
b101 9
b10 C
b101 @
b111 F
1(
#828000
0(
#846000
b111 G
0B
b1 >
b1000 A
b100 !
b100 0
b100 9
b1 C
b100 "
b100 1
b100 8
b100 ?
b100 @
b111 E
1(
#864000
0(
#882000
1B
b111 G
b11 H
0D
b111100 >
b11 A
b1 !
b1 0
b1 9
13
b0 C
b110 "
b110 1
b110 8
b110 ?
b1 @
b111 E
1(
#900000
0(
#918000
1#
0/
1D
b0 >
b111 A
b11 !
b11 0
b11 9
b11 I
b11 @
b111 F
1(
#919000
b0 H
0,
#936000
0(
#954000
0#
b0 I
1(
#972000
0(
#990000
1(
#1008000
0(
#1026000
b1 H
1,
b11 *
b11 .
b11 7
b1010 )
b1010 -
b1010 6
1(
#1044000
0(
#1062000
12
b10 H
b1 I
1(
#1080000
0(
#1098000
1/
02
b0 !
b0 0
b0 9
0D
b111101 >
b0 A
b111 G
0B
b10 I
03
b110 C
b0 @
b0 "
b0 1
b0 8
b0 ?
b11 =
b1010 <
1(
#1116000
0(
#1134000
b111 G
b101 C
b111 F
1(
#1152000
0(
#1170000
b111 G
b100 C
b111 F
1(
#1188000
0(
#1206000
b111110 >
b1 A
1B
b111 G
b11 C
b111 F
1(
#1224000
0(
#1242000
b111 G
0B
0D
b111111 >
b10 A
b1 !
b1 0
b1 9
b10 C
b1 @
b111 F
1(
#1260000
0(
#1278000
1B
b111 G
1D
b10 >
b101 A
b10 !
b10 0
b10 9
b1 C
b10 @
b111 F
1(
#1296000
0(
#1314000
b1 >
b100 A
b111 G
0B
b11 H
13
b0 C
b10 "
b10 1
b10 8
b10 ?
b111 E
1(
#1332000
0(
#1350000
1#
0/
0D
b111111 >
b10 A
b1 !
b1 0
b1 9
b11 "
b11 1
b11 8
b11 ?
b11 I
b1 @
b111 E
1(
#1351000
b0 H
0,
#1368000
0(
#1386000
0#
b0 I
1(
#1404000
0(
#1422000
1(
#1440000
0(
#1458000
b1 H
1,
b101 *
b101 .
b101 7
b0 )
b0 -
b0 6
1(
#1476000
0(
#1494000
12
b10 H
b1 I
1(
#1512000
0(
#1530000
1/
02
b0 !
b0 0
b0 9
b111011 >
b0 A
b111 G
b10 I
03
b110 C
b0 @
b0 "
b0 1
b0 8
b0 ?
b101 =
b0 <
1(
#1548000
0(
#1566000
b111 G
b101 C
b111 F
1(
#1584000
0(
#1602000
b111 G
b100 C
b111 F
1(
#1620000
0(
#1638000
b111 G
b11 C
b111 F
1(
#1656000
0(
#1674000
b111 G
b10 C
b111 F
1(
#1692000
0(
#1710000
b111 G
b1 C
b111 F
1(
#1728000
0(
#1746000
b111 G
b11 H
13
b0 C
b111 F
1(
#1764000
0(
#1782000
1#
0/
b11 I
b111 F
1(
#1783000
b0 H
0,
#1800000
0(
#1818000
0#
b0 I
1(
#1836000
0(
#1854000
1(
#1872000
0(
#1890000
b1 H
1,
b11111 *
b11111 .
b11111 7
b1111111 )
b1111111 -
b1111111 6
1(
#1908000
0(
#1926000
12
b10 H
b1 I
1(
#1944000
0(
#1962000
1/
02
b100010 >
b1 A
1B
b111 G
b10 I
03
b110 C
b11111 =
b1111111 <
1(
#1980000
0(
#1998000
b111 G
1B
b100100 >
b11 A
b1 !
b1 0
b1 9
b101 C
b1 @
b111 F
1(
#2016000
0(
#2034000
b111 G
1B
b101000 >
b111 A
b11 !
b11 0
b11 9
b100 C
b11 @
b111 F
1(
#2052000
0(
#2070000
b111 G
1B
b110000 >
b1111 A
b111 !
b111 0
b111 9
b11 C
b111 @
b111 F
1(
#2088000
0(
#2106000
b111 G
1B
1D
b0 >
b11111 A
b1111 !
b1111 0
b1111 9
b10 C
b1111 @
b111 F
1(
#2124000
0(
#2142000
b111 G
1B
0D
b100010 >
b1 A
b0 !
b0 0
b0 9
b1 C
b100 "
b100 1
b100 8
b100 ?
b0 @
b111 E
1(
#2160000
0(
#2178000
b111 G
1B
b11 H
b100100 >
b11 A
b1 !
b1 0
b1 9
13
b0 C
b1 @
b111 F
1(
#2196000
0(
#2214000
1#
0/
b101000 >
b111 A
b11 !
b11 0
b11 9
b11 I
b11 @
b111 F
1(
#2215000
b0 H
0,
#2232000
0(
#2250000
0#
b0 I
1(
#2268000
0(
#2286000
1(
#2304000
0(
#2322000
b1 H
1,
b10001 *
b10001 .
b10001 7
b1100100 )
b1100100 -
b1100100 6
1(
#2340000
0(
#2358000
12
b10 H
b1 I
1(
#2376000
0(
#2394000
1/
02
b0 !
b0 0
b0 9
b110000 >
b1 A
b111 G
1B
b10 I
03
b110 C
b0 @
b0 "
b0 1
b0 8
b0 ?
b10001 =
b1100100 <
1(
#2412000
0(
#2430000
b111 G
1B
b110010 >
b11 A
b1 !
b1 0
b1 9
b101 C
b1 @
b111 F
1(
#2448000
0(
#2466000
b111 G
0B
b110101 >
b110 A
b11 !
b11 0
b11 9
b100 C
b11 @
b111 F
1(
#2484000
0(
#2502000
b111 G
b111011 >
b1100 A
b110 !
b110 0
b110 9
b11 C
b110 @
b111 F
1(
#2520000
0(
#2538000
1B
b111 G
1D
b1000 >
b11001 A
b1100 !
b1100 0
b1100 9
b10 C
b1100 @
b111 F
1(
#2556000
0(
#2574000
0D
b111 G
0B
b111111 >
b10000 A
b1000 !
b1000 0
b1000 9
b1 C
b100 "
b100 1
b100 8
b100 ?
b1000 @
b111 E
1(
#2592000
0(
#2610000
b111 G
b11 H
1D
b1111 >
b100000 A
b10000 !
b10000 0
b10000 9
13
b0 C
b10000 @
b111 F
1(
#2628000
0(
#2646000
1#
0/
b1101 >
b11110 A
b1111 !
b1111 0
b1111 9
b101 "
b101 1
b101 8
b101 ?
b11 I
b1111 @
b111 E
1(
#2647000
b0 H
0,
#2664000
0(
#2682000
0#
b0 I
1(
#2700000
0(
#2718000
1(
#2736000
0(
#2754000
b1 H
1,
b11111 *
b11111 .
b11111 7
b1100011 )
b1100011 -
b1100011 6
1(
#2772000
0(
#2790000
12
b10 H
b1 I
1(
#2808000
0(
#2826000
1/
02
b0 !
b0 0
b0 9
0D
b100010 >
b1 A
1B
b111 G
b10 I
03
b110 C
b0 @
b0 "
b0 1
b0 8
b0 ?
b11111 =
b1100011 <
1(
#2844000
0(
#2862000
b111 G
1B
b100100 >
b11 A
b1 !
b1 0
b1 9
b101 C
b1 @
b111 F
1(
#2880000
0(
#2898000
b111 G
0B
b100111 >
b110 A
b11 !
b11 0
b11 9
b100 C
b11 @
b111 F
1(
#2916000
0(
#2934000
b111 G
b101101 >
b1100 A
b110 !
b110 0
b110 9
b11 C
b110 @
b111 F
1(
#2952000
0(
#2970000
b111 G
b111001 >
b11000 A
b1100 !
b1100 0
b1100 9
b10 C
b1100 @
b111 F
1(
#2988000
0(
#3006000
1B
b111 G
1D
b10010 >
b110001 A
b11000 !
b11000 0
b11000 9
b1 C
b11000 @
b111 F
1(
#3024000
0(
#3042000
b111 G
1B
b11 H
b110 >
b100101 A
b10010 !
b10010 0
b10010 9
13
b0 C
b10 "
b10 1
b10 8
b10 ?
b10010 @
b111 E
1(
#3060000
0(
#3078000
1#
0/
0D
b101110 >
b1101 A
b110 !
b110 0
b110 9
b11 "
b11 1
b11 8
b11 ?
b11 I
b110 @
b111 E
1(
#3079000
b0 H
0,
#3096000
0(
#3114000
0#
b0 I
1(
